CipherString = @SECLEVEL=1:kEECDH:kRSA:kEDH:-aDSS:!EXP:-3DES:!DES:!RC4:!RC2:!IDEA:-SEED:!eNULL:!aNULL:!MD5:-SHA384:-CAMELLIA:!SSLv2:!ADH
Ciphersuites = TLS_AES_256_GCM_SHA384:TLS_CHACHA20_POLY1305_SHA256:TLS_AES_128_GCM_SHA256:TLS_AES_128_CCM_SHA256
MinProtocol = TLSv1
