CipherString = @SECLEVEL=2:kEECDH:kRSA:kEDH:-aDSS:!EXP:-CHACHA20-POLY1305:-3DES:!DES:!RC4:!RC2:!IDEA:-SEED:!eNULL:!aNULL:!MD5:-SHA384:-CAMELLIA:!SSLv2:!ADH
Ciphersuites = TLS_AES_256_GCM_SHA384:TLS_AES_128_GCM_SHA256:TLS_AES_128_CCM_SHA256
MinProtocol = TLSv1
