CipherString = @SECLEVEL=3:kEECDH:kRSA:kEDH:-aDSS:!EXP:-AES-128-GCM:-3DES:!DES:!RC4:!RC2:!IDEA:-SEED:!eNULL:!aNULL:-SHA1:!MD5:-SHA384:-CAMELLIA:!SSLv2:!ADH
Ciphersuites = TLS_AES_256_GCM_SHA384:TLS_CHACHA20_POLY1305_SHA256
MinProtocol = TLSv1.2
